Raw Data Download
…
Status: 200 OK

Content-Type: application/json

Body: In memory (38387 bytes)

# convert the body of the response to a tibble
response_body <- response |> 
  resp_body_string() |> 
  jsonlite::fromJSON() |> 
  as_tibble()
response_body

# A tibble: 21 × 39
   VesselID VesselSubjectID VesselName VesselAbbrev Class$ClassID Status
      <int>           <int> <chr>      <chr>                <int>  <int>
 1        1               1 Cathlamet  CAT                     10      1
 2        2               2 Chelan     CHE                     10      1
 3       65             428 Chetzemoka CHZ                    162      1
 4       74             487 Chimacum   CHM                    100      1
 5       15              15 Issaquah   ISS                     10      1
 6       17              17 Kaleetan   KAL                     50      1
 7       52              52 Kennewick  KEN                    162      1
 8       18              18 Kitsap     KIS                     10      1
 9       19              19 Kittitas   KIT                     10      1
10       25              25 Puyallup   PUY                     90      1
# ℹ 11 more rows
# ℹ 39 more variables: Class$ClassSubjectID <int>, $ClassName <chr>,
#   $SortSeq <int>, $DrawingImg <chr>, $SilhouetteImg <chr>,
#   $PublicDisplayName <chr>, OwnedByWSF <lgl>, CarDeckRestroom <lgl>,
#   CarDeckShelter <lgl>, Elevator <lgl>, ADAAccessible <lgl>,
#   MainCabinGalley <lgl>, MainCabinRestroom <lgl>, PublicWifi <lgl>,
#   ADAInfo <chr>, AdditionalInfo <chr>, VesselNameDesc <chr>, …

# Sometimes special characters or spaces in column names are not
# database-friendly, so we will use `janitor::clean_names` to
# clean column names so there are no issues writing the data.
# Additionally, the results include a nested dataframe of Class information - 
# we will unnest this so there are no errors with our database interpreting this.
vesselinfo_raw <- response_body |> unnest(Class) |>  clean_names() 
vesselinfo_raw

# A tibble: 21 × 45
   vessel_id vessel_subject_id vessel_name vessel_abbrev class_id
       <int>             <int> <chr>       <chr>            <int>
 1         1                 1 Cathlamet   CAT                 10
 2         2                 2 Chelan      CHE                 10
 3        65               428 Chetzemoka  CHZ                162
 4        74               487 Chimacum    CHM                100
 5        15                15 Issaquah    ISS                 10
 6        17                17 Kaleetan    KAL                 50
 7        52                52 Kennewick   KEN                162
 8        18                18 Kitsap      KIS                 10
 9        19                19 Kittitas    KIT                 10
10        25                25 Puyallup    PUY                 90
# ℹ 11 more rows
# ℹ 40 more variables: class_subject_id <int>, class_name <chr>,
#   sort_seq <int>, drawing_img <chr>, silhouette_img <chr>,
#   public_display_name <chr>, status <int>, owned_by_wsf <lgl>,
#   car_deck_restroom <lgl>, car_deck_shelter <lgl>, elevator <lgl>,
#   ada_accessible <lgl>, main_cabin_galley <lgl>, main_cabin_restroom <lgl>,
#   public_wifi <lgl>, ada_info <chr>, additional_info <chr>, …
…
# Convert the list into a data frame and clean the column names
vesselhistory_raw <- bind_rows(data_list) |> clean_names()
vesselhistory_raw

# A tibble: 10,936 × 8
   vessel_id vessel departing arriving scheduled_depart           actual_depart 
       <int> <chr>  <chr>     <chr>    <chr>                      <chr>         
 1        27 Chelan Clinton   Mukilteo /Date(1721821200000-0700)/ /Date(1721821…
 2        27 Chelan Mukilteo  Clinton  /Date(1721822700000-0700)/ /Date(1721822…
 3        27 Chelan Clinton   Mukilteo /Date(1721824200000-0700)/ /Date(1721824…
 4        27 Chelan Mukilteo  Clinton  /Date(1721826000000-0700)/ /Date(1721826…
 5        27 Chelan Clinton   Mukilteo /Date(1721827800000-0700)/ /Date(1721827…
 6        27 Chelan Mukilteo  Clinton  /Date(1721829600000-0700)/ /Date(1721829…
 7        27 Chelan Clinton   Mukilteo /Date(1721831400000-0700)/ /Date(1721831…
 8        27 Chelan Mukilteo  Clinton  /Date(1721833200000-0700)/ /Date(1721833…
 9      8007 Chelan Clinton   Mukilteo /Date(1721836800000-0700)/ /Date(1721837…
10        27 Chelan Clinton   Mukilteo /Date(1721838600000-0700)/ /Date(1721839…
# ℹ 10,926 more rows
# ℹ 2 more variables: est_arrival <chr>, date <chr>
…
# Convert the list into a data frame and clean the column names
weather_terminal_history_raw <- bind_rows(data_list) 
weather_terminal_history_raw

# A tibble: 14,880 × 9
   terminal    lat  long time         precipitation weather_code cloud_cover_low
   <chr>     <dbl> <dbl> <chr>                <dbl>        <int>           <int>
 1 Anacortes  48.5 -123. 2024-07-24T…             0            0               0
 2 Anacortes  48.5 -123. 2024-07-24T…             0            0               0
 3 Anacortes  48.5 -123. 2024-07-24T…             0            0               0
 4 Anacortes  48.5 -123. 2024-07-24T…             0            0               0
 5 Anacortes  48.5 -123. 2024-07-24T…             0            0               0
 6 Anacortes  48.5 -123. 2024-07-24T…             0            0               0
 7 Anacortes  48.5 -123. 2024-07-24T…             0            0               0
 8 Anacortes  48.5 -123. 2024-07-24T…             0            0               0
 9 Anacortes  48.5 -123. 2024-07-24T…             0            0               9
10 Anacortes  48.5 -123. 2024-07-24T…             0            0               8
# ℹ 14,870 more rows
# ℹ 2 more variables: wind_speed_10m <dbl>, wind_gusts_10m <dbl>
…
